{
  "project_info": {
    "project_number": "347886706654",
    "firebase_url": "https://papychat-f772c.firebaseio.com",
    "project_id": "papychat-f772c",
    "storage_bucket": "papychat-f772c.appspot.com"
  },
  "client": [
    {
      "client_info": {
        "mobilesdk_app_id": "1:347886706654:android:c083e1cf312e6a2fdfc74f",
        "android_client_info": {
          "package_name": "edu.iei.papychat"
        }
      },
      "oauth_client": [
        {
          "client_id": "347886706654-cvia6cjiitv8jbtgpt5ojgcbg33p07fb.apps.googleusercontent.com",
          "client_type": 3
        }
      ],
      "api_key": [
        {
          "current_key": "AIzaSyC4LeoVyy5IFRfr8SqWsQMtLRf0EMJ-x6A"
        }
      ],
      "services": {
        "appinvite_service": {
          "other_platform_oauth_client": [
            {
              "client_id": "347886706654-cvia6cjiitv8jbtgpt5ojgcbg33p07fb.apps.googleusercontent.com",
              "client_type": 3
            },
            {
              "client_id": "347886706654-pav7vjsm375rhpe39dr04522cjnsgatd.apps.googleusercontent.com",
              "client_type": 2,
              "ios_info": {
                "bundle_id": "edu.iei.papychat"
              }
            }
          ]
        }
      }
    }
  ],
  "configuration_version": "1"
}